<?xml version="1.0" encoding="UTF-8" standalone="no"?>
<svg
   xmlns:dc="http://purl.org/dc/elements/1.1/"
   xmlns:cc="http://creativecommons.org/ns#"
   xmlns:rdf="http://www.w3.org/1999/02/22-rdf-syntax-ns#"
   xmlns:svg="http://www.w3.org/2000/svg"
   xmlns="http://www.w3.org/2000/svg"
   xmlns:sodipodi="http://sodipodi.sourceforge.net/DTD/sodipodi-0.dtd"
   xmlns:inkscape="http://www.inkscape.org/namespaces/inkscape"
   viewBox="0 0 62.779998 93.23"
   version="1.1"
   id="svg37"
   sodipodi:docname="hackillinois.svg"
   width="62.779999"
   height="93.230003"
   inkscape:version="1.0.2 (e86c870879, 2021-01-15, custom)"
   inkscape:export-filename="/home/paul/Documents/Servicios_Editoriales/KDE/NextCloud/Promo Team Resources/Reports/Annual/Web/ev-kde-org/reports/ev-2020/images/logos/hackillinois.png"
   inkscape:export-xdpi="49.426147"
   inkscape:export-ydpi="49.426147">
  <metadata
     id="metadata41">
    <rdf:RDF>
      <cc:Work
         rdf:about="">
        <dc:format>image/svg+xml</dc:format>
        <dc:type
           rdf:resource="http://purl.org/dc/dcmitype/StillImage" />
        <dc:title>HackIllinois_Website</dc:title>
      </cc:Work>
    </rdf:RDF>
  </metadata>
  <sodipodi:namedview
     pagecolor="#ffffff"
     bordercolor="#666666"
     borderopacity="1"
     objecttolerance="10"
     gridtolerance="10"
     guidetolerance="10"
     inkscape:pageopacity="0"
     inkscape:pageshadow="2"
     inkscape:window-width="2560"
     inkscape:window-height="1021"
     id="namedview39"
     showgrid="false"
     fit-margin-top="0"
     fit-margin-left="0"
     fit-margin-right="0"
     fit-margin-bottom="0"
     inkscape:zoom="3.9703"
     inkscape:cx="145.455"
     inkscape:cy="45.851441"
     inkscape:window-x="1920"
     inkscape:window-y="0"
     inkscape:window-maximized="1"
     inkscape:current-layer="svg37" />
  <defs
     id="defs4">
    <style
       id="style2">.cls-1{fill:#0a093f;}.cls-2{fill:#ec2a39;}</style>
  </defs>
  <title
     id="title6">HackIllinois_Website</title>
  <polygon
     class="cls-2"
     points="0,20.59 18.04,20.59 18.04,37.63 44.98,37.63 44.98,20.59 62.78,20.59 62.78,0 11.95,0 "
     id="polygon32" />
  <polygon
     class="cls-2"
     points="62.78,72.65 44.98,72.65 44.98,55.61 18.04,55.61 18.04,72.65 0,72.65 0,93.23 51.3,93.23 "
     id="polygon34" />
</svg>
