<?xml version="1.0" encoding="UTF-8" standalone="no"?>
<svg width="132.292mm" height="52.9167mm"
 viewBox="0 0 375 150"
 xmlns="http://www.w3.org/2000/svg" xmlns:xlink="http://www.w3.org/1999/xlink"  version="1.2" baseProfile="tiny">
<title>Qt Svg Document</title>
<desc>Generated with Qt</desc>
<defs>
</defs>
<g fill="none" stroke="black" stroke-width="1" fill-rule="evenodd" stroke-linecap="square" stroke-linejoin="bevel" >

<g fill="none" stroke="#000000" stroke-opacity="1" stroke-width="20" stroke-linecap="round" stroke-linejoin="round" transform="matrix(1,0,0,1,0,0)"
font-family="Ubuntu" font-size="11" font-weight="400" font-style="normal" 
>
<path vector-effect="none" fill-rule="evenodd" d="M59.9245,73.25 C59.9746,73.8304 60,74.4122 60,75 C60,86.0457 51.0457,95 40,95 C28.9543,95 20,86.0457 20,75 C20,66.9764 24.7248,60.0564 31.5418,56.8713 "/>
<path vector-effect="none" fill-rule="evenodd" d="M60.075,73.2555 C60.0254,73.8304 60,74.4122 60,75 C60,86.0457 68.9543,95 80,95 C91.0457,95 100,86.0457 100,75 C100,66.9764 95.2752,60.0564 88.4561,56.8703 "/>
</g>

<g fill="none" stroke="#000000" stroke-opacity="1" stroke-width="20" stroke-linecap="round" stroke-linejoin="round" transform="matrix(1,0,0,1,0,0)"
font-family="Ubuntu" font-size="11" font-weight="400" font-style="normal" 
>
<path vector-effect="none" fill-rule="evenodd" d="M164,75 C164,86.0457 155.046,95 144,95 C132.954,95 124,86.0457 124,75 C124,63.9543 132.954,55 144,55 C155.046,55 164,63.9543 164,75 "/>
<polyline fill="none" vector-effect="none" points="190,20 190,95 " />
</g>

<g fill="none" stroke="#000000" stroke-opacity="1" stroke-width="20" stroke-linecap="round" stroke-linejoin="round" transform="matrix(1,0,0,1,0,0)"
font-family="Ubuntu" font-size="11" font-weight="400" font-style="normal" 
>
<path vector-effect="none" fill-rule="evenodd" d="M230,75 C230,86.0457 221.046,95 210,95 C198.954,95 190,86.0457 190,75 C190,63.9543 198.954,55 210,55 C221.046,55 230,63.9543 230,75 "/>
</g>

<g fill="none" stroke="#000000" stroke-opacity="1" stroke-width="20" stroke-linecap="round" stroke-linejoin="round" transform="matrix(1,0,0,1,0,0)"
font-family="Ubuntu" font-size="11" font-weight="400" font-style="normal" 
>
<path vector-effect="none" fill-rule="evenodd" d="M295,75 C295,86.0457 286.046,95 275,95 C263.954,95 255,86.0457 255,75 C255,63.9543 263.954,55 275,55 C286.046,55 295,63.9543 295,75 "/>
</g>

<g fill="none" stroke="#000000" stroke-opacity="1" stroke-width="20" stroke-linecap="round" stroke-linejoin="round" transform="matrix(-1,0,0,-1,550,150)"
font-family="Ubuntu" font-size="11" font-weight="400" font-style="normal" 
>
<path vector-effect="none" fill-rule="evenodd" d="M59.9245,73.25 C59.9746,73.8304 60,74.4122 60,75 C60,86.0457 51.0457,95 40,95 C28.9543,95 20,86.0457 20,75 C20,66.9764 24.7248,60.0564 31.5418,56.8713 "/>
<path vector-effect="none" fill-rule="evenodd" d="M60.075,73.2555 C60.0254,73.8304 60,74.4122 60,75 C60,86.0457 68.9543,95 80,95 C91.0457,95 100,86.0457 100,75 C100,66.9764 95.2752,60.0564 88.4561,56.8703 "/>
</g>

<g fill="none" stroke="#000000" stroke-opacity="1" stroke-width="20" stroke-linecap="round" stroke-linejoin="round" transform="matrix(-1,0,0,-1,550,150)"
font-family="Ubuntu" font-size="11" font-weight="400" font-style="normal" 
>
<path vector-effect="none" fill-rule="evenodd" d="M164,75 C164,86.0457 155.046,95 144,95 C132.954,95 124,86.0457 124,75 C124,63.9543 132.954,55 144,55 C155.046,55 164,63.9543 164,75 "/>
<polyline fill="none" vector-effect="none" points="190,20 190,95 " />
</g>

<g fill="none" stroke="#000000" stroke-opacity="1" stroke-width="20" stroke-linecap="round" stroke-linejoin="round" transform="matrix(-1,0,0,-1,550,150)"
font-family="Ubuntu" font-size="11" font-weight="400" font-style="normal" 
>
<path vector-effect="none" fill-rule="evenodd" d="M230,75 C230,86.0457 221.046,95 210,95 C198.954,95 190,86.0457 190,75 C190,63.9543 198.954,55 210,55 C221.046,55 230,63.9543 230,75 "/>
</g>

<g fill="none" stroke="#000000" stroke-opacity="1" stroke-width="20" stroke-linecap="round" stroke-linejoin="round" transform="matrix(-1,0,0,-1,550,150)"
font-family="Ubuntu" font-size="11" font-weight="400" font-style="normal" 
>
<path vector-effect="none" fill-rule="evenodd" d="M295,75 C295,86.0457 286.046,95 275,95 C263.954,95 255,86.0457 255,75 C255,63.9543 263.954,55 275,55 C286.046,55 295,63.9543 295,75 "/>
</g>
</g>
</svg>
